module gitlab.com/ottermations/go-log

go 1.19

require (
	github.com/go-telegram-bot-api/telegram-bot-api/v5 v5.5.1 // indirect
	github.com/sirupsen/logrus v1.9.0 // indirect
	golang.org/x/sys v0.0.0-20220715151400-c0bba94af5f8 // indirect
)
